<?xml version="1.0" encoding="utf-8"?>
<!-- Generator: Adobe Illustrator 21.0.2, SVG Export Plug-In . SVG Version: 6.00 Build 0)  -->
<svg version="1.1" id="Ebene_1" xmlns="http://www.w3.org/2000/svg" xmlns:xlink="http://www.w3.org/1999/xlink" x="0px" y="0px"
	 viewBox="0 0 512 512" style="enable-background:new 0 0 512 512;" xml:space="preserve">
<style type="text/css">
	.st0{fill:#22AE7C;}
	.st1{fill:#FFFFFF;}
</style>
<rect class="st0" width="512" height="512"/>
<path class="st1" d="M208.5,105.8c32.1,0.1,64.1-0.1,96.2,0.2c-0.1,34.1,0.2,68.1-0.2,102.2c33.7,0.2,67.5,0.1,101.2,0.1
	c-0.1,32.1,0.2,64.2-0.2,96.3c-33.7,0.4-67.3,0.1-100.9,0.2c0.1,33.8,0,67.6,0.1,101.3c-31.6-0.1-63.1,0.7-94.7-0.2
	c-3.8-32.6-0.6-67.5-1.4-101c-34.1-1.2-68.3,2-102.3-1.8c0.4-31.5,0.2-63,0.1-94.5c34-0.7,68.1-0.2,102.1-0.3
	C208.5,174.1,208.5,139.9,208.5,105.8z"/>
</svg>
