<?xml version="1.0" encoding="utf-8"?>
<!-- Generator: Adobe Illustrator 21.0.2, SVG Export Plug-In . SVG Version: 6.00 Build 0)  -->
<svg version="1.1" id="Ebene_1" xmlns="http://www.w3.org/2000/svg" xmlns:xlink="http://www.w3.org/1999/xlink" x="0px" y="0px"
	 viewBox="0 0 512 512" style="enable-background:new 0 0 512 512;" xml:space="preserve">
<style type="text/css">
	.st0{fill:#31BDA4;}
	.st1{fill:#FFFFFF;}
</style>
<path class="st0" d="M0,0h512v512H0V0z"/>
<path class="st1" d="M120.1,120.1c91,0,182,0,273,0c-0.3,68,0,135.9-0.1,203.9c0.1,22.7-0.1,45.5,0.1,68.2c-91,0-182,0-273,0
	C120.1,301.5,120,210.8,120.1,120.1z"/>
<path class="st0" d="M146.5,185.1c73.3,0,146.6,0,220,0c0,60.2,0,120.3,0,180.5c-73.3,0-146.7,0-220,0
	C146.6,305.5,146.5,245.3,146.5,185.1z"/>
<path class="st1" d="M200.4,226.3c0-10.2,0-20.5,0-30.8c10.3,0,20.6,0,30.8,0c0,10.2,0,20.5,0,30.7
	C220.9,226.3,210.7,226.3,200.4,226.3z"/>
<path class="st1" d="M241.6,195.5c10.3,0,20.6,0,30.8,0c-0.1,10.2,0,20.5,0,30.7c-10.3,0-20.5,0-30.8,0
	C241.6,216,241.6,205.8,241.6,195.5z"/>
<path class="st1" d="M282.5,195.5c10.3,0,20.5,0,30.8,0c0,10.2,0,20.5,0,30.7c-10.3,0-20.5,0-30.8,0
	C282.5,216,282.6,205.8,282.5,195.5z"/>
<path class="st1" d="M323.5,226.3c-0.1-10.2,0-20.5,0-30.8c10.3,0,20.5,0,30.8,0c0,10.2,0,20.5,0,30.7
	C344,226.3,333.7,226.3,323.5,226.3z"/>
<path class="st1" d="M159.4,236.4c10.3,0,20.6,0,30.9,0c0,10.1-0.1,20.2,0.1,30.4c-10.2,0.9-20.5,0.1-30.8,0.5
	C159.3,257,159.6,246.7,159.4,236.4z"/>
<path class="st1" d="M200.4,236.4c10.3,0,20.6,0,30.8,0c-0.1,9.6,0,19.2,0,28.8c0.5,2-1.9,2-3.1,1.9c-9.2,0-18.4,0-27.6,0
	C200.3,256.9,200.5,246.6,200.4,236.4z"/>
<path class="st1" d="M241.6,236.4c10.3,0,20.6,0,30.9,0c0,10.2-0.1,20.3,0,30.5c-10.3,0.7-20.6,0.1-30.8,0.3
	C241.6,256.9,241.6,246.6,241.6,236.4z"/>
<path class="st1" d="M282.5,236.4c10.3,0,20.6,0,30.8,0c0,10.2-0.1,20.3,0,30.5c-10.2,0.6-20.5,0.1-30.8,0.3
	C282.5,256.9,282.6,246.6,282.5,236.4z"/>
<path class="st1" d="M323.4,236.4c10.3,0,20.6,0,30.9,0c0,10.1-0.1,20.2,0.1,30.3c-10.2,1-20.5,0.1-30.8,0.5
	C323.3,257,323.6,246.7,323.4,236.4z"/>
<path class="st1" d="M159.4,277.2c10.3,0,20.6,0,30.9,0c0,10.2,0,20.4,0,30.5c-10.3,0-20.6,0-30.9,0
	C159.5,297.6,159.5,287.4,159.4,277.2z"/>
<path class="st1" d="M200.4,277.2c10.3,0.1,20.6-0.1,30.8,0.1c-0.1,10.2,0,20.3,0,30.5c-10.3,0-20.6,0-30.8,0
	C200.4,297.6,200.4,287.4,200.4,277.2z"/>
<path class="st1" d="M241.6,277.2c10.3,0.1,20.6,0,30.8,0c0,10.2-0.1,20.3,0,30.5c-10.3,0.1-20.6,0-30.9,0.1
	C241.6,297.6,241.6,287.4,241.6,277.2z"/>
<path class="st1" d="M282.5,277.2c10.2,0,20.5,0.1,30.7,0c0.1,10.2,0,20.4,0,30.6c-10.3,0-20.5,0-30.8,0
	C282.5,297.6,282.5,287.4,282.5,277.2z"/>
<path class="st1" d="M323.5,277.2c10.3,0,20.5,0,30.8,0c0,10.2,0,20.3,0,30.5c-10.3,0.1-20.6,0-30.8,0.1
	C323.5,297.6,323.5,287.4,323.5,277.2z"/>
<path class="st1" d="M159.4,318.4c10.3,0,20.6,0,30.9,0c0,10.1-0.1,20.3,0,30.4c-10.2,0.8-20.5,0.1-30.8,0.4
	C159.3,339,159.6,328.7,159.4,318.4z"/>
<path class="st1" d="M200.4,318.4c10.3,0,20.6,0,30.8,0c-0.1,9.6,0,19.2,0,28.8c0.5,2-1.9,2.1-3.2,2c-9.2,0-18.4,0-27.5,0
	C200.3,338.9,200.5,328.6,200.4,318.4z"/>
<path class="st1" d="M241.6,318.4c10.3,0,20.6,0,30.9,0c-0.1,10.3,0,20.5,0,30.8c-10.2,0-20.5,0-30.8,0
	C241.6,338.9,241.7,328.6,241.6,318.4z"/>
<path class="st1" d="M282.5,318.4c10.3,0,20.5,0,30.8,0c0,10.1-0.1,20.3,0.1,30.4c-10.2,0.9-20.6,0.2-30.8,0.4
	C282.5,338.9,282.6,328.6,282.5,318.4z"/>
</svg>
