<?xml version="1.0" encoding="utf-8"?>
<!-- Generator: Adobe Illustrator 21.0.2, SVG Export Plug-In . SVG Version: 6.00 Build 0)  -->
<svg version="1.1" id="Ebene_1" xmlns="http://www.w3.org/2000/svg" xmlns:xlink="http://www.w3.org/1999/xlink" x="0px" y="0px"
	 viewBox="0 0 512 512" style="enable-background:new 0 0 512 512;" xml:space="preserve">
<style type="text/css">
	.st0{fill:#22967C;}
	.st1{fill:#FFFFFF;}
</style>
<title>extension_catalog</title>
<path class="st0" d="M0,0h512v512H0V0z"/>
<path class="st1" d="M114.4,299.6c0.2-52.7,0-105.4,0.1-158c69.2,0,138.3,0,207.5,0c-0.1,9.9,0,19.8-0.1,29.7
	c-58.4-0.1-116.7,0.1-175.1-0.1c0,42.8,0.1,85.6-0.1,128.4C135.9,299.5,125.1,299.5,114.4,299.6z"/>
<path class="st1" d="M152.3,334.6c0.2-52.7-0.1-105.3,0.1-158c69.1,0.2,138.1,0.2,207.2,0c0,9.9,0.1,19.8,0,29.6
	c-58.3-0.1-116.6,0-174.9-0.1c0,42.8-0.1,85.6,0,128.4C173.9,334.6,163.1,334.6,152.3,334.6z"/>
<path class="st1" d="M189.8,211.8c69.3-0.1,138.5-0.1,207.8,0c-0.1,52.7-0.1,105.3,0,158c-67.9,0-135.7,0-203.6,0
	c-1.5,0-2.9-0.1-4.4-0.2c1.1-10.8-0.4-21.7,0.4-32.6c0.2-9-0.5-18,0.1-26.9c-0.3-26-0.3-52-0.2-78
	C190.5,225.3,189.6,218.5,189.8,211.8z"/>
</svg>
