<?xml version="1.0" encoding="utf-8"?>
<!-- Generator: Adobe Illustrator 21.0.2, SVG Export Plug-In . SVG Version: 6.00 Build 0)  -->
<svg version="1.1" id="Ebene_1" xmlns="http://www.w3.org/2000/svg" xmlns:xlink="http://www.w3.org/1999/xlink" x="0px" y="0px"
	 viewBox="0 0 512 512" style="enable-background:new 0 0 512 512;" xml:space="preserve">
<style type="text/css">
	.st0{fill:#693838;}
	.st1{fill:#FFFFFF;}
</style>
<path class="st0" d="M0,0h512v512H0V0z"/>
<path class="st1" d="M190.9,135c16.8-10.6,36.2-17.4,56.1-18c16.7-0.5,34.1,2.6,48.3,11.8c11.7,7.4,20.5,19.5,23.3,33.2
	c2.5,11.7,2,24.2-1.9,35.6c-3.5,9.2-8.7,17.6-15,25.2c-11.5,14.1-26.7,24.8-37.8,39.3c-4.3,5.9-8.4,12.2-9.7,19.5
	c-2.2,11.9,1,24,5.6,34.9c-10.1,0.1-20.2-0.1-30.4,0.1c-2.4-6.4-3.3-13.3-4.1-20c-0.2-6.7-0.7-13.6,0.9-20.2
	c1.7-7.6,5.7-14.5,10-20.9c13.3-19.5,34.3-32.2,46.6-52.4c6.8-10.3,8.9-23.7,4.7-35.4c-3.4-9.3-11.3-16.6-20.4-20.3
	c-12.4-5-26.4-4.8-39.2-1.6c-14.3,3.6-26.9,12.2-37,22.9C190.9,157.2,190.9,146.1,190.9,135z"/>
<path class="st1" d="M240.3,353.7c12.4-4.2,27,6.2,26.9,19.4c0.8,10.9-8.6,20.9-19.3,21.5c-7.2,0.7-14.5-2.9-18.7-8.7
	c-4.9-6.6-5.2-16.4-0.6-23.3C231.5,358.6,235.4,355,240.3,353.7z"/>
</svg>
