<?xml version="1.0" encoding="utf-8"?>
<!-- Generator: Adobe Illustrator 21.0.2, SVG Export Plug-In . SVG Version: 6.00 Build 0)  -->
<svg version="1.1" id="Ebene_1" xmlns="http://www.w3.org/2000/svg" xmlns:xlink="http://www.w3.org/1999/xlink" x="0px" y="0px"
	 viewBox="0 0 512 512" style="enable-background:new 0 0 512 512;" xml:space="preserve">
<style type="text/css">
	.st0{fill:#497D79;}
	.st1{fill:#FFFFFF;}
</style>
<path class="st0" d="M0,0h512v512H0V0z"/>
<path class="st1" d="M100.4,152.3l1.5-0.2c102.9,0.1,205.9-0.1,308.8,0.1c-51.2,41.6-102.9,82.8-154.2,124.4c-1.1,1.2-2.3-0.3-3.1-1
	C202.5,234.5,151.4,193.4,100.4,152.3z"/>
<path class="st1" d="M91.1,157.1c4.4,2.7,8.1,6.6,12.3,9.6c37.2,30.2,74.7,59.9,111.8,90.2c-41.4,33.2-82.7,66.5-124,99.8
	C91,290.1,91.1,223.6,91.1,157.1z"/>
<path class="st1" d="M382.3,187.2c12.6-10,25-20.4,37.8-30.2c0,66.2,0.1,132.5,0,198.7c-40.2-32.4-80.4-64.8-120.6-97.1
	c-0.8-0.9-2.5-1.3-2.5-2.7C325.5,233,353.9,210.1,382.3,187.2z"/>
<path class="st1" d="M222.2,263.1c1.3-0.2,2.1,1.1,3.1,1.7c9.1,7.3,18.1,14.6,27.2,21.9c1.4,1.5,4,1.4,5.7,0.5
	c10.3-8.3,20.7-16.5,30.9-25c39.4,31.4,78.6,63.2,117.9,94.8c1.3,1.3,3.2,2,4.1,3.7c-103.2,0.1-206.5,0-309.8,0
	c5.4-5.1,11.6-9.4,17.3-14.3C153.1,318.7,187.6,290.9,222.2,263.1z"/>
</svg>
