<?xml version="1.0" encoding="utf-8"?>
<!-- Generator: Adobe Illustrator 21.0.2, SVG Export Plug-In . SVG Version: 6.00 Build 0)  -->
<svg version="1.1" id="Ebene_1" xmlns="http://www.w3.org/2000/svg" xmlns:xlink="http://www.w3.org/1999/xlink" x="0px" y="0px"
	 viewBox="0 0 512 512" style="enable-background:new 0 0 512 512;" xml:space="preserve">
<style type="text/css">
	.st0{fill:#4F5068;}
	.st1{fill:#FFFFFF;}
</style>
<path class="st0" d="M0,0h512v512H0V0z"/>
<path class="st1" d="M215.5,125.4c13-4.4,26.7-6.3,40.4-7c28.2-0.2,56.5,7.8,79.9,23.7c23.2,15.6,41.5,38.4,51.4,64.6
	c16.4,41.9,10,91.7-16.4,128.2c-15.2,21.3-36.5,38.2-60.7,48c-36,14.9-78.3,13.5-113.2-3.9c-15.8-7.7-30.1-18.5-41.9-31.5
	c-12.9,12.5-25.8,25-38.4,37.7c0.2-14.1,1.6-28.2,2.1-42.3c1.3-20.5,2.2-41,3.6-61.5c13.9-0.3,27.8-1.1,41.7-1.2
	c8-0.8,16-0.5,24-0.9c12.7-0.5,25.4-0.9,38.1-1.3c-14.3,14-28.6,28.1-43.1,42c20.3,24,52.9,36.8,84.1,33.6c24.5-2,48-13.9,64.5-32
	c21.4-23.1,30.6-57,23.3-87.8c-5.4-24.2-20.5-46-41.1-59.7c-16.3-11-36-16.8-55.7-16.7c-22.2,0-44.3,7.8-61.7,21.7
	c-22.7,17.9-37.1,46.1-37.2,75.2c-13,0.1-26.1-0.3-39.1-0.7c0.3-26.8,9-53.3,24.2-75.4C161.5,153.6,186.8,134.6,215.5,125.4z"/>
</svg>
